E esse estimador aí? – Isabella Munhoz
…
Temos certeza da média populacional porque determinados ela: mean = 2375, sd = 1000. Imagina que retiramos uma amostr dessa população de 100 pessoas

# A tibble: 100 × 2
       id informal_sallary
    <int>            <dbl>
 1 969167            1588.
 2 188942            4289.
 3 134058            2798.
 4 124022            2746.
 5 685285            1212.
 6 226318            2429.
 7 365209            2518.
 8 648795            1475.
 9 985797            3073.
10 193627            1308.
# ℹ 90 more rows
…
